Categories:Writing
License:GPL-3.0
Web Site:https://github.com/caarmen/poet-assistant/blob/HEAD/README.md
Source Code:https://github.com/caarmen/poet-assistant
Issue Tracker:https://github.com/caarmen/poet-assistant/issues
Changelog:https://github.com/caarmen/poet-assistant/blob/HEAD/CHANGELOG.md

Auto Name:Poet Assistant
Summary:Dictionary and TTS tools for editing poems
Description:
A set of tools to help with writing poems:

* a rhyming dictionary, using the Carnegie Mellon University pronunciation dictionary.
* a thesaurus, using the WordNet thesaurus.
* a dictionary, using the WordNet dictionary.
* a screen where you can enter your poem text, and have it read aloud back to you by the device's text-to-speech engine.
.

Repo Type:git
Repo:https://github.com/caarmen/poet-assistant.git

Build:1.0.1,101
    commit=release-1.0.1
    subdir=app
    gradle=yes

Build:1.0.4,104
    commit=release-1.0.4
    subdir=app
    gradle=yes

Build:1.0.5,105
    commit=release-1.0.5
    subdir=app
    gradle=yes

Build:1.0.6,106
    commit=release-1.0.6
    subdir=app
    gradle=yes

Build:1.0.7,107
    commit=release-1.0.7
    subdir=app
    gradle=yes

Build:1.2.0,120
    commit=release-1.2.0
    subdir=app
    gradle=yes

Build:1.3.0,130
    commit=release-1.3.0
    subdir=app
    gradle=yes

Build:1.4.0,140
    commit=release-1.4.0
    subdir=app
    gradle=yes

Build:1.5.0,150
    commit=release-1.5.0
    subdir=app
    gradle=yes

Build:1.5.2,152
    commit=release-1.5.2
    subdir=app
    gradle=yes

Build:1.6.0,160
    commit=release-1.6.0
    subdir=app
    gradle=yes

Build:1.6.1,161
    commit=release-1.6.1
    subdir=app
    gradle=yes

Build:1.6.2,162
    commit=release-1.6.2
    subdir=app
    gradle=yes

Build:1.6.3,163
    commit=release-1.6.3
    subdir=app
    gradle=yes

Build:1.6.4,164
    commit=release-1.6.4
    subdir=app
    gradle=yes

Build:1.6.5,165
    commit=release-1.6.5
    subdir=app
    gradle=yes

Build:1.7.0,170
    commit=release-1.7.0
    subdir=app
    gradle=yes

Build:1.7.2,172
    commit=release-1.7.2
    subdir=app
    gradle=yes

Build:1.7.3,173
    commit=release-1.7.3
    subdir=app
    gradle=yes

Build:1.8.1,181
    commit=release-1.8.1
    subdir=app
    gradle=yes

Build:1.8.2,182
    commit=release-1.8.2
    subdir=app
    gradle=yes

Build:1.8.3,183
    commit=release-1.8.3
    subdir=app
    gradle=yes

Build:1.9.0,190
    commit=release-1.9.0
    subdir=app
    gradle=yes

Build:1.9.1,191
    commit=release-1.9.1
    subdir=app
    gradle=yes

Build:1.9.2,192
    commit=release-1.9.2
    subdir=app
    gradle=yes

Build:1.9.3,193
    commit=release-1.9.3
    subdir=app
    gradle=yes

Build:1.9.5,195
    commit=release-1.9.5
    subdir=app
    gradle=yes

Build:1.9.6,196
    commit=release-1.9.6
    subdir=app
    gradle=yes

Build:1.10.0,1100
    commit=release-1.10.0
    subdir=app
    gradle=yes

Build:1.10.1,1101
    commit=release-1.10.1
    subdir=app
    gradle=yes

Build:1.10.2,1102
    commit=release-1.10.2
    subdir=app
    gradle=yes

Build:1.10.3,1103
    commit=release-1.10.3
    subdir=app
    gradle=yes

Build:1.10.4,1104
    commit=release-1.10.4
    subdir=app
    gradle=yes

Build:1.10.6,1106
    commit=release-1.10.6
    subdir=app
    gradle=yes

Build:1.10.7,1107
    commit=release-1.10.7
    subdir=app
    gradle=yes

Build:1.10.9,1109
    commit=release-1.10.9
    subdir=app
    gradle=yes

Build:1.10.10,11010
    commit=release-1.10.10
    subdir=app
    gradle=yes

Build:1.10.11,11011
    commit=release-1.10.11
    subdir=app
    gradle=yes

Build:1.11.0,11100
    commit=release-1.11.0
    subdir=app
    gradle=yes

Build:1.11.1,11101
    commit=release-1.11.1
    subdir=app
    gradle=yes

Build:1.11.2,11102
    commit=release-1.11.2
    subdir=app
    gradle=yes

Auto Update Mode:Version release-%v
Update Check Mode:Tags ^release-
Current Version:1.11.2
Current Version Code:11102
